…
``` r
spacingData
```

    ## # A tibble: 1,259 x 18
    ##    pumpkinID year  plot  rep   treatment pumpkinNum spacingArea spacingDim
    ##    <chr>     <fct> <fct> <fct> <fct>          <dbl> <fct>       <fct>     
    ##  1 2020-S-1~ 2020  101   1     1                  1 10          10 x 1    
    ##  2 2020-S-1~ 2020  102   1     2                  1 20          10 x 2    
    ##  3 2020-S-1~ 2020  103   1     3                  1 30          10 x 3    
    ##  4 2020-S-1~ 2020  104   1     4                  1 40          10 x 4    
    ##  5 2020-S-1~ 2020  105   1     5                  1 10          5 x 2     
    ##  6 2020-S-1~ 2020  106   1     6                  1 20          5 x 4     
    ##  7 2020-S-1~ 2020  107   1     7                  1 30          5 x 6     
    ##  8 2020-S-1~ 2020  108   1     8                  1 40          5 x 8     
    ##  9 2020-S-2~ 2020  201   2     3                  1 30          10 x 3    
    ## 10 2020-S-2~ 2020  202   2     1                  1 10          10 x 1    
    ## # ... with 1,249 more rows, and 10 more variables: betweenRow <fct>,
    ## #   inRow <fct>, standCount <dbl>, standCountIdeal <dbl>,
    ## #   standCountIdealPct <dbl>, color <fct>, weight <chr>, length <dbl>,
    ## #   diameter <dbl>, volumeEllipsoid <dbl>
…
